%YAML 1.1
%TAG !u! tag:unity3d.com,2011:
--- !u!1045 &1
EditorBuildSettings:
  m_ObjectHideFlags: 0
  serializedVersion: 2
  m_Scenes:
  - enabled: 1
    path: Assets/Spotify4Unity/examples/all_controls/all_controls.unity
    guid: 6b2a2e866a23fa64f8afb82e0c938e33
  - enabled: 0
    path: Assets/Spotify4Unity/examples/mobile/MobileScene.unity
    guid: 9ecc0dc6f146bba42ae1dd6317c826bd
  m_configObjects: {}
